%!PS-Adobe-3.0
%%Creator: graphviz version 2.38.0 (20140413.2041)
%%Title: Tree
%%Pages: (atend)
%%BoundingBox: (atend)
%%EndComments
save
%%BeginProlog
/DotDict 200 dict def
DotDict begin

/setupLatin1 {
mark
/EncodingVector 256 array def
 EncodingVector 0

ISOLatin1Encoding 0 255 getinterval putinterval
EncodingVector 45 /hyphen put

% Set up ISO Latin 1 character encoding
/starnetISO {
        dup dup findfont dup length dict begin
        { 1 index /FID ne { def }{ pop pop } ifelse
        } forall
        /Encoding EncodingVector def
        currentdict end definefont
} def
/Times-Roman starnetISO def
/Times-Italic starnetISO def
/Times-Bold starnetISO def
/Times-BoldItalic starnetISO def
/Helvetica starnetISO def
/Helvetica-Oblique starnetISO def
/Helvetica-Bold starnetISO def
/Helvetica-BoldOblique starnetISO def
/Courier starnetISO def
/Courier-Oblique starnetISO def
/Courier-Bold starnetISO def
/Courier-BoldOblique starnetISO def
cleartomark
} bind def

%%BeginResource: procset graphviz 0 0
/coord-font-family /Times-Roman def
/default-font-family /Times-Roman def
/coordfont coord-font-family findfont 8 scalefont def

/InvScaleFactor 1.0 def
/set_scale {
       dup 1 exch div /InvScaleFactor exch def
       scale
} bind def

% styles
/solid { [] 0 setdash } bind def
/dashed { [9 InvScaleFactor mul dup ] 0 setdash } bind def
/dotted { [1 InvScaleFactor mul 6 InvScaleFactor mul] 0 setdash } bind def
/invis {/fill {newpath} def /stroke {newpath} def /show {pop newpath} def} bind def
/bold { 2 setlinewidth } bind def
/filled { } bind def
/unfilled { } bind def
/rounded { } bind def
/diagonals { } bind def
/tapered { } bind def

% hooks for setting color 
/nodecolor { sethsbcolor } bind def
/edgecolor { sethsbcolor } bind def
/graphcolor { sethsbcolor } bind def
/nopcolor {pop pop pop} bind def

/beginpage {	% i j npages
	/npages exch def
	/j exch def
	/i exch def
	/str 10 string def
	npages 1 gt {
		gsave
			coordfont setfont
			0 0 moveto
			(\() show i str cvs show (,) show j str cvs show (\)) show
		grestore
	} if
} bind def

/set_font {
	findfont exch
	scalefont setfont
} def

% draw text fitted to its expected width
/alignedtext {			% width text
	/text exch def
	/width exch def
	gsave
		width 0 gt {
			[] 0 setdash
			text stringwidth pop width exch sub text length div 0 text ashow
		} if
	grestore
} def

/boxprim {				% xcorner ycorner xsize ysize
		4 2 roll
		moveto
		2 copy
		exch 0 rlineto
		0 exch rlineto
		pop neg 0 rlineto
		closepath
} bind def

/ellipse_path {
	/ry exch def
	/rx exch def
	/y exch def
	/x exch def
	matrix currentmatrix
	newpath
	x y translate
	rx ry scale
	0 0 1 0 360 arc
	setmatrix
} bind def

/endpage { showpage } bind def
/showpage { } def

/layercolorseq
	[	% layer color sequence - darkest to lightest
		[0 0 0]
		[.2 .8 .8]
		[.4 .8 .8]
		[.6 .8 .8]
		[.8 .8 .8]
	]
def

/layerlen layercolorseq length def

/setlayer {/maxlayer exch def /curlayer exch def
	layercolorseq curlayer 1 sub layerlen mod get
	aload pop sethsbcolor
	/nodecolor {nopcolor} def
	/edgecolor {nopcolor} def
	/graphcolor {nopcolor} def
} bind def

/onlayer { curlayer ne {invis} if } def

/onlayers {
	/myupper exch def
	/mylower exch def
	curlayer mylower lt
	curlayer myupper gt
	or
	{invis} if
} def

/curlayer 0 def

%%EndResource
%%EndProlog
%%BeginSetup
14 default-font-family set_font
1 setmiterlimit
% /arrowlength 10 def
% /arrowwidth 5 def

% make sure pdfmark is harmless for PS-interpreters other than Distiller
/pdfmark where {pop} {userdict /pdfmark /cleartomark load put} ifelse
% make '<<' and '>>' safe on PS Level 1 devices
/languagelevel where {pop languagelevel}{1} ifelse
2 lt {
    userdict (<<) cvn ([) cvn load put
    userdict (>>) cvn ([) cvn load put
} if

%%EndSetup
setupLatin1
%%Page: 1 1
%%PageBoundingBox: 36 36 386 224
%%PageOrientation: Portrait
0 0 1 beginpage
gsave
36 36 350 188 boxprim clip newpath
1 1 set_scale 0 rotate 40 40 translate
% 0
gsave
1 setlinewidth
0 0 0 nodecolor
171 162 34.39 18 ellipse_path stroke
0 0 0 nodecolor
14 /Times-Roman set_font
152.5 158.3 moveto 37 (ROOT) alignedtext
grestore
% 1
gsave
1 setlinewidth
0 0 0 nodecolor
171 90 27 18 ellipse_path stroke
0 0 0 nodecolor
14 /Times-Roman set_font
167 86.3 moveto 8 (S) alignedtext
grestore
% 0->1
gsave
1 setlinewidth
0 0 0 edgecolor
newpath 171 143.7 moveto
171 135.98 171 126.71 171 118.11 curveto
stroke
0 0 0 edgecolor
newpath 174.5 118.1 moveto
171 108.1 lineto
167.5 118.1 lineto
closepath fill
1 setlinewidth
solid
0 0 0 edgecolor
newpath 174.5 118.1 moveto
171 108.1 lineto
167.5 118.1 lineto
closepath stroke
grestore
% 2
gsave
0 0 0.75294 nodecolor
27 18 27 18 ellipse_path fill
1 setlinewidth
filled
0 0 0 nodecolor
27 18 27 18 ellipse_path stroke
0 0 0 nodecolor
14 /Times-Roman set_font
19 14.3 moveto 16 ([a]) alignedtext
grestore
% 1->2
gsave
1 setlinewidth
0 0 0 edgecolor
newpath 149.75 78.67 moveto
125.4 66.83 85.28 47.33 57.57 33.86 curveto
stroke
0 0 0 edgecolor
newpath 58.86 30.6 moveto
48.33 29.37 lineto
55.8 36.89 lineto
closepath fill
1 setlinewidth
solid
0 0 0 edgecolor
newpath 58.86 30.6 moveto
48.33 29.37 lineto
55.8 36.89 lineto
closepath stroke
grestore
% 3
gsave
1 setlinewidth
0 0 0 nodecolor
99 18 27 18 ellipse_path stroke
0 0 0 nodecolor
14 /Times-Roman set_font
91.5 14.3 moveto 15 (S1) alignedtext
grestore
% 1->3
gsave
1 setlinewidth
0 0 0 edgecolor
newpath 156.43 74.83 moveto
146.25 64.94 132.48 51.55 120.97 40.36 curveto
stroke
0 0 0 edgecolor
newpath 123.41 37.85 moveto
113.8 33.38 lineto
118.53 42.87 lineto
closepath fill
1 setlinewidth
solid
0 0 0 edgecolor
newpath 123.41 37.85 moveto
113.8 33.38 lineto
118.53 42.87 lineto
closepath stroke
grestore
% 4
gsave
0 0 0.75294 nodecolor
171 18 27 18 ellipse_path fill
1 setlinewidth
filled
0 0 0 nodecolor
171 18 27 18 ellipse_path stroke
0 0 0 nodecolor
14 /Times-Roman set_font
163 14.3 moveto 16 ([b]) alignedtext
grestore
% 1->4
gsave
1 setlinewidth
0 0 0 edgecolor
newpath 171 71.7 moveto
171 63.98 171 54.71 171 46.11 curveto
stroke
0 0 0 edgecolor
newpath 174.5 46.1 moveto
171 36.1 lineto
167.5 46.1 lineto
closepath fill
1 setlinewidth
solid
0 0 0 edgecolor
newpath 174.5 46.1 moveto
171 36.1 lineto
167.5 46.1 lineto
closepath stroke
grestore
% 5
gsave
1 setlinewidth
0 0 0 nodecolor
243 18 27 18 ellipse_path stroke
0 0 0 nodecolor
14 /Times-Roman set_font
235.5 14.3 moveto 15 (S2) alignedtext
grestore
% 1->5
gsave
1 setlinewidth
0 0 0 edgecolor
newpath 185.57 74.83 moveto
195.75 64.94 209.52 51.55 221.03 40.36 curveto
stroke
0 0 0 edgecolor
newpath 223.47 42.87 moveto
228.2 33.38 lineto
218.59 37.85 lineto
closepath fill
1 setlinewidth
solid
0 0 0 edgecolor
newpath 223.47 42.87 moveto
228.2 33.38 lineto
218.59 37.85 lineto
closepath stroke
grestore
% 6
gsave
0 0 0.75294 nodecolor
315 18 27 18 ellipse_path fill
1 setlinewidth
filled
0 0 0 nodecolor
315 18 27 18 ellipse_path stroke
0 0 0 nodecolor
14 /Times-Roman set_font
307 14.3 moveto 16 ([c]) alignedtext
grestore
% 1->6
gsave
1 setlinewidth
0 0 0 edgecolor
newpath 192.25 78.67 moveto
216.6 66.83 256.72 47.33 284.43 33.86 curveto
stroke
0 0 0 edgecolor
newpath 286.2 36.89 moveto
293.67 29.37 lineto
283.14 30.6 lineto
closepath fill
1 setlinewidth
solid
0 0 0 edgecolor
newpath 286.2 36.89 moveto
293.67 29.37 lineto
283.14 30.6 lineto
closepath stroke
grestore
endpage
showpage
grestore
%%PageTrailer
%%EndPage: 1
setupLatin1
%%Page: 2 2
%%PageBoundingBox: 36 36 220 170
%%PageOrientation: Portrait
0 0 1 beginpage
gsave
36 36 184 134 boxprim clip newpath
1 1 set_scale 0 rotate 40 40 translate
% 0
gsave
1 setlinewidth
0 0 0 nodecolor
87.65 98.87 84.71 26.74 ellipse_path stroke
0 0 0 nodecolor
14 /Times-Roman set_font
35.65 102.67 moveto 104 (COORDINATION) alignedtext
0 0 0 nodecolor
14 /Times-Roman set_font
61.65 87.67 moveto 52 (signal:[b]) alignedtext
grestore
% l
gsave
1 setlinewidth
0 0 0 nodecolor
39.65 18 39.79 18 ellipse_path stroke
0 0 0 nodecolor
14 /Times-Roman set_font
17.15 14.3 moveto 45 ([a]S1[c]) alignedtext
grestore
% 0->l
gsave
1 setlinewidth
0 0 0 edgecolor
newpath 71.93 72.05 moveto
66.49 63.11 60.41 53.11 55 44.22 curveto
stroke
0 0 0 edgecolor
newpath 57.85 42.18 moveto
49.66 35.46 lineto
51.87 45.82 lineto
closepath fill
1 setlinewidth
solid
0 0 0 edgecolor
newpath 57.85 42.18 moveto
49.66 35.46 lineto
51.87 45.82 lineto
closepath stroke
grestore
% r
gsave
1 setlinewidth
0 0 0 nodecolor
136.65 18 39.79 18 ellipse_path stroke
0 0 0 nodecolor
14 /Times-Roman set_font
114.15 14.3 moveto 45 ([a]S2[c]) alignedtext
grestore
% 0->r
gsave
1 setlinewidth
0 0 0 edgecolor
newpath 103.69 72.05 moveto
109.24 63.11 115.45 53.11 120.98 44.22 curveto
stroke
0 0 0 edgecolor
newpath 124.12 45.8 moveto
126.42 35.46 lineto
118.17 42.1 lineto
closepath fill
1 setlinewidth
solid
0 0 0 edgecolor
newpath 124.12 45.8 moveto
126.42 35.46 lineto
118.17 42.1 lineto
closepath stroke
grestore
endpage
showpage
grestore
%%PageTrailer
%%EndPage: 2
%%Trailer
%%Pages: 2
%%BoundingBox: 36 36 386 224
end
restore
%%EOF
