If the red ball splashed down , either on its own or with other colored balls , the player lost half of their winnings .

ROOT
└───────> S
          ├───────> SBAR
          |         ├─────────────────────────────────────────────────────────> IN
          |         |                                                           └───────> If
          |         └───────> S
          |                   ├─────────────────────────────────────> NP
          |                   |                                       ├───────> DT
          |                   |                                       |         └───────> the
          |                   |                                       ├───────> JJ
          |                   |                                       |         └───────> red
          |                   |                                       └───────> NN
          |                   |                                                 └───────> ball
          |                   └───────> VP
          |                             ├─────────────────────────────────────> VBD
          |                             |                                       └───────> splashed
          |                             ├───────────────────────────> PRT
          |                             |                             └───────> RP
          |                             |                                       └───────> down
          |                             ├─────────────────────────────────────> ,
          |                             |                                       └───────> ,
          |                             └───────> PP
          |                                       ├───────────────────────────> CC
          |                                       |                             └───────> either
          |                                       ├───────> PP
          |                                       |         ├─────────────────> IN
          |                                       |         |                   └───────> on
          |                                       |         └───────> NP
          |                                       |                   ├───────> PRP$
          |                                       |                   |         └───────> its
          |                                       |                   └───────> JJ
          |                                       |                             └───────> own
          |                                       ├───────────────────────────> CC
          |                                       |                             └───────> or
          |                                       └───────> PP
          |                                                 ├─────────────────> IN
          |                                                 |                   └───────> with
          |                                                 └───────> NP
          |                                                           ├───────> JJ
          |                                                           |         └───────> other
          |                                                           ├───────> JJ
          |                                                           |         └───────> colored
          |                                                           └───────> NNS
          |                                                                     └───────> balls
          ├───────────────────────────────────────────────────────────────────> ,
          |                                                                     └───────> ,
          ├─────────────────────────────────────────────────────────> NP
          |                                                           ├───────> DT
          |                                                           |         └───────> the
          |                                                           └───────> NN
          |                                                                     └───────> player
          ├───────────────────────────> VP
          |                             ├─────────────────────────────────────> VBD
          |                             |                                       └───────> lost
          |                             └───────> NP
          |                                       ├─────────────────> NP
          |                                       |                   └───────> NN
          |                                       |                             └───────> half
          |                                       └───────> PP
          |                                                 ├─────────────────> IN
          |                                                 |                   └───────> of
          |                                                 └───────> NP
          |                                                           ├───────> PRP$
          |                                                           |         └───────> their
          |                                                           └───────> NNS
          |                                                                     └───────> winnings
          └───────────────────────────────────────────────────────────────────> .
                                                                                └───────> .

[SUBORDINATION_1]->[UNKNOWN] ['If']
├───────> <The player lost half of their winnings .>
└───────> <The red ball splashed down , either on its own or with other colored balls .>

